<?xml version="1.0" encoding="UTF-8" standalone="no"?>
<svg
   xmlns:dc="http://purl.org/dc/elements/1.1/"
   xmlns:cc="http://creativecommons.org/ns#"
   xmlns:rdf="http://www.w3.org/1999/02/22-rdf-syntax-ns#"
   xmlns:svg="http://www.w3.org/2000/svg"
   xmlns="http://www.w3.org/2000/svg"
   xmlns:sodipodi="http://sodipodi.sourceforge.net/DTD/sodipodi-0.dtd"
   xmlns:inkscape="http://www.inkscape.org/namespaces/inkscape"
   width="512"
   height="512"
   viewBox="0 0 135.46666 135.46667"
   version="1.1"
   id="svg8"
   inkscape:export-filename="/tmp/b5.png"
   inkscape:export-xdpi="96"
   inkscape:export-ydpi="96"
   inkscape:version="1.0.1 (3bc2e813f5, 2020-09-07)"
   sodipodi:docname="hintergrund.svg">
  <defs
     id="defs2">
    <clipPath
       clipPathUnits="userSpaceOnUse"
       id="clipPath50">
      <path
         d="M 0,0 H 2383.937 V 1683.78 H 0 Z"
         id="path48"
         inkscape:connector-curvature="0" />
    </clipPath>
  </defs>
  <sodipodi:namedview
     id="base"
     pagecolor="#ffffff"
     bordercolor="#666666"
     borderopacity="1.0"
     inkscape:pageopacity="0.0"
     inkscape:pageshadow="2"
     inkscape:zoom="0.98994949"
     inkscape:cx="227.7154"
     inkscape:cy="269.22164"
     inkscape:document-units="mm"
     inkscape:current-layer="layer1"
     inkscape:document-rotation="0"
     showgrid="false"
     units="px"
     inkscape:snap-global="false"
     inkscape:window-width="1920"
     inkscape:window-height="1015"
     inkscape:window-x="0"
     inkscape:window-y="0"
     inkscape:window-maximized="1" />
  <metadata
     id="metadata5">
    <rdf:RDF>
      <cc:Work
         rdf:about="">
        <dc:format>image/svg+xml</dc:format>
        <dc:type
           rdf:resource="http://purl.org/dc/dcmitype/StillImage" />
        <dc:title></dc:title>
      </cc:Work>
    </rdf:RDF>
  </metadata>
  <g
     inkscape:label="Ebene 1"
     inkscape:groupmode="layer"
     id="layer1">
    <circle
       style="fill:#ffffff;fill-opacity:1;stroke:none;stroke-width:0.938337;stroke-linecap:round;stroke-linejoin:round"
       id="path894"
       cx="67.73333"
       cy="67.73333"
       r="67.73333" />
    <g
       id="g969"
       transform="matrix(0.42323345,0,0,0.42323345,105.69328,62.45672)">
      <circle
         style="fill:#ffffff;fill-opacity:1;stroke:none;stroke-width:0.516028;stroke-linecap:round;stroke-linejoin:round"
         id="path894-5"
         cx="22.451452"
         cy="124.91346"
         r="37.249207" />
      <g
         id="g34"
         inkscape:label="logo"
         transform="matrix(0.04854216,0,0,-0.04854216,-16.73369,98.044891)">
        <path
           d="m 798.8421,-1114.4881 h 9.70445 v 159.81826 h -9.70445 z"
           style="fill:#a1c854;fill-opacity:1;fill-rule:nonzero;stroke:none;stroke-width:1.00794"
           id="path42"
           inkscape:connector-curvature="0" />
        <g
           id="g44"
           transform="matrix(1.0079417,0,0,1.0079416,215.11385,-1418.082)">
          <g
             id="g46"
             clip-path="url(#clipPath50)">
            <g
               id="g52"
               transform="translate(579.1293,459.7604)">
              <path
                 d="m 0,0 c -152.287,9.351 -266.796,146.84 -266.796,322.986 0,218.724 135.151,373.205 266.796,507.549 z"
                 style="fill:#bdd888;fill-opacity:1;fill-rule:nonzero;stroke:none"
                 id="path54"
                 inkscape:connector-curvature="0" />
            </g>
          </g>
        </g>
        <g
           id="g56"
           transform="matrix(1.0079417,0,0,1.0079416,1170.9007,-675.62674)">
          <path
             d="m 0,0 v 92.282 h -92.282 v 92.281 h -92.281 v 92.282 h -92.282 v 92.282 h 92.282 v -92.282 h 92.281 v 92.282 h -92.281 v 92.282 h -184.564 v -738.254 h 92.282 v 92.282 h 92.282 v 92.281 h 92.281 V 0 Z m -184.563,0 h -92.282 v 92.282 h 92.282 z m 92.281,553.69 h -92.282 v -92.282 h 92.282 z m 0,0 H 0 v 92.282 h -92.282 z m -276.845,0 h 92.282 v 92.282 h -92.282 z"
             style="fill:#a1c854;fill-opacity:1;fill-rule:nonzero;stroke:none"
             id="path58"
             inkscape:connector-curvature="0" />
        </g>
      </g>
    </g>
  </g>
</svg>
